<?xml version="1.0" encoding="utf-8"?>
<!-- Generator: Adobe Illustrator 23.0.1, SVG Export Plug-In . SVG Version: 6.00 Build 0)  -->
<svg version="1.1" id="Layer_1" xmlns="http://www.w3.org/2000/svg" xmlns:xlink="http://www.w3.org/1999/xlink" x="0px" y="0px"
	 viewBox="0 0 105.032 37.984" style="enable-background:new 0 0 105.032 37.984;" xml:space="preserve">
<style type="text/css">
	.st0{fill:#0E2D6D;}
</style>
<g>
	<path class="st0" d="M2.487,28.397c2.185,3.762,5.522,6.674,9.527,8.252c-2.548-1.578-4.976-3.459-7.16-5.705
		C4.004,30.155,3.276,29.308,2.487,28.397L2.487,28.397z"/>
	<path class="st0" d="M0.485,23.179c0.182,0.789,0.425,1.578,0.667,2.305c1.275,1.76,2.61,3.399,4.187,4.977
		c2.973,2.912,6.25,5.279,9.77,7.1c0.788,0.182,1.637,0.303,2.426,0.363c-4.247-1.881-8.191-4.551-11.649-8.008
		C3.762,27.851,2.002,25.546,0.485,23.179L0.485,23.179z"/>
	<path class="st0" d="M0,19.417c0,0.605,0.06,1.213,0.121,1.76c1.638,2.973,3.762,5.764,6.25,8.252
		c3.883,3.883,8.373,6.734,13.166,8.555c0.608,0,1.215-0.061,1.822-0.121c-5.28-1.76-10.255-4.733-14.503-8.981
		C4.004,26.03,1.759,22.815,0,19.417L0,19.417z"/>
	<path class="st0" d="M0.182,16.382c-0.061,0.486-0.122,0.972-0.122,1.457c1.699,3.822,4.187,7.402,7.342,10.558
		c4.49,4.49,9.83,7.523,15.534,9.162c0.485-0.06,0.971-0.182,1.456-0.365c-6.007-1.455-11.772-4.611-16.504-9.344
		C4.49,24.452,1.941,20.509,0.182,16.382L0.182,16.382z"/>
	<path class="st0" d="M0.728,13.713c-0.122,0.425-0.243,0.849-0.303,1.274c1.699,4.49,4.368,8.736,8.009,12.379
		c4.915,4.914,10.922,8.068,17.293,9.404c0.364-0.121,0.79-0.303,1.213-0.486c-6.614-1.213-12.924-4.367-18.021-9.404
		C5.097,22.997,2.366,18.567,0.728,13.713L0.728,13.713z"/>
	<path class="st0" d="M1.577,11.468c-0.182,0.364-0.303,0.728-0.485,1.092c1.577,5.097,4.308,9.769,8.313,13.773
		c5.279,5.279,11.832,8.375,18.628,9.406c0.363-0.182,0.667-0.426,1.032-0.607c-6.978-0.85-13.774-3.943-19.115-9.283
		C5.824,21.661,3.033,16.747,1.577,11.468L1.577,11.468z"/>
	<path class="st0" d="M8.13,21.54c-1.092-0.242-1.941-1.213-1.941-2.427c0-0.121,0-0.243,0-0.364
		c-1.699-2.913-2.913-6.068-3.641-9.284c-0.182,0.304-0.364,0.607-0.485,0.972c1.335,5.46,4.126,10.619,8.373,14.867
		c5.461,5.459,12.439,8.553,19.538,9.221c0.304-0.242,0.607-0.424,0.911-0.668c-7.282-0.484-14.381-3.518-19.903-9.039
		C9.95,23.784,8.98,22.692,8.13,21.54L8.13,21.54z"/>
	<path class="st0" d="M7.038,17.293c-1.638-3.034-2.791-6.25-3.337-9.587C3.519,8.009,3.337,8.252,3.094,8.555
		c0.607,3.277,1.76,6.432,3.459,9.344C6.674,17.657,6.856,17.475,7.038,17.293L7.038,17.293z"/>
	<path class="st0" d="M9.769,21.298c-0.182,0.121-0.486,0.242-0.728,0.242c0.728,0.971,1.577,1.881,2.427,2.791
		c5.642,5.584,12.863,8.557,20.205,8.859c0.243-0.244,0.485-0.484,0.789-0.729c-7.464-0.121-14.805-3.033-20.448-8.678
		C11.225,22.997,10.497,22.147,9.769,21.298L9.769,21.298z"/>
	<path class="st0" d="M29.55,31.552c1.152,0.121,2.366,0.182,3.58,0.182c0.181-0.182,0.363-0.424,0.546-0.605
		c-1.093,0.303-2.306,0.424-3.52,0.424C29.974,31.552,29.732,31.552,29.55,31.552L29.55,31.552z"/>
	<path class="st0" d="M13.046,22.753c-0.789-0.787-1.578-1.639-2.246-2.486c-0.121,0.242-0.243,0.424-0.424,0.607
		c0.667,0.85,1.334,1.637,2.123,2.426c3.945,3.883,8.677,6.432,13.713,7.645c-1.517-0.484-2.852-1.152-4.065-2.062
		C18.81,27.487,15.715,25.425,13.046,22.753L13.046,22.753z"/>
	<path class="st0" d="M8.434,16.747C6.553,13.47,5.4,9.829,4.975,6.189C4.732,6.432,4.551,6.674,4.308,6.917
		c0.485,3.52,1.638,6.857,3.337,10.012C7.888,16.808,8.13,16.747,8.434,16.747L8.434,16.747z"/>
	<path class="st0" d="M19.963,26.759c-0.243-0.303-0.486-0.607-0.729-0.971c-1.82-1.094-3.58-2.488-5.157-4.064
		C9.344,17.05,6.734,11.043,6.31,4.854C6.067,5.097,5.824,5.279,5.582,5.522c0.425,3.943,1.638,7.766,3.701,11.286
		c1.032,0.303,1.821,1.213,1.821,2.305c0,0.121,0,0.243,0,0.364c0.728,0.971,1.516,1.881,2.427,2.791
		c2.063,2.062,4.369,3.762,6.856,5.035c0-0.061,0-0.061,0-0.061C20.266,27.122,20.145,26.94,19.963,26.759L19.963,26.759z"/>
	<path class="st0" d="M15.048,20.69c-4.672-4.671-7.16-10.739-7.342-16.928C7.463,3.944,7.22,4.126,6.977,4.308
		c0.304,6.189,2.852,12.257,7.585,16.929c1.214,1.213,2.548,2.305,3.944,3.215c-0.182-0.363-0.364-0.787-0.546-1.273
		C16.989,22.45,16.019,21.601,15.048,20.69L15.048,20.69z"/>
	<path class="st0" d="M25.12,25.362c1.397,1.094,3.216,1.82,5.158,1.82c1.031,0,2.002-0.182,2.852-0.484
		C30.399,26.698,27.73,26.272,25.12,25.362L25.12,25.362z"/>
	<path class="st0" d="M16.079,19.659c-4.672-4.611-6.978-10.74-6.978-16.868C8.859,2.912,8.616,3.094,8.373,3.216
		c0.121,6.188,2.488,12.317,7.221,16.99c0.667,0.668,1.335,1.273,2.063,1.881c-0.122-0.426-0.183-0.789-0.243-1.152
		C16.989,20.509,16.504,20.146,16.079,19.659L16.079,19.659z"/>
	<path class="st0" d="M17.293,18.87c-0.061-0.06-0.122-0.121-0.183-0.121c-4.611-4.611-6.795-10.74-6.553-16.808
		c-0.242,0.122-0.485,0.304-0.728,0.425c-0.121,6.068,2.124,12.257,6.796,16.809c0.182,0.242,0.425,0.484,0.668,0.726
		C17.293,19.537,17.293,19.175,17.293,18.87L17.293,18.87z"/>
	<path class="st0" d="M23.239,22.997c0.182,0.424,0.364,0.787,0.607,1.092c3.458,1.518,7.22,2.062,10.861,1.82
		c0.425-0.242,0.789-0.547,1.153-0.85C31.613,25.606,27.183,24.938,23.239,22.997L23.239,22.997z"/>
	<path class="st0" d="M22.755,21.114c0.059,0.365,0.12,0.668,0.181,0.973c4.247,2.184,9.101,2.912,13.714,2.123
		c0.06-0.06,0.06-0.06,0.12-0.121c0.182-0.242,0.364-0.486,0.486-0.789C32.401,24.331,27.183,23.602,22.755,21.114L22.755,21.114z"
		/>
	<path class="st0" d="M17.474,16.989c-4.004-4.429-5.824-10.133-5.4-15.715c-0.242,0.122-0.546,0.243-0.788,0.364
		c-0.303,5.825,1.699,11.771,6.068,16.322c0-0.121,0-0.242,0.061-0.364C17.414,17.414,17.474,17.171,17.474,16.989L17.474,16.989z"
		/>
	<path class="st0" d="M13.591,0.789c-0.303,0.06-0.545,0.121-0.788,0.243c-0.486,5.339,1.152,10.8,4.854,15.108
		c0.121-0.243,0.182-0.546,0.303-0.85C14.501,11.165,13.046,5.886,13.591,0.789L13.591,0.789z"/>
	<path class="st0" d="M24.331,20.327c-0.546-0.305-1.152-0.607-1.698-0.971c0,0.303,0,0.606,0,0.91
		c4.61,2.67,9.95,3.457,14.986,2.244c0.122-0.242,0.183-0.484,0.244-0.729c0-0.059,0-0.059,0-0.059
		c-3.945,1.029-8.192,0.787-12.015-0.73h-1.517V20.327L24.331,20.327z"/>
	<path class="st0" d="M22.633,18.567c0.546,0.364,1.152,0.667,1.698,0.97v-0.788c-0.546-0.303-1.092-0.667-1.637-1.031
		C22.633,18.021,22.633,18.324,22.633,18.567L22.633,18.567z"/>
	<path class="st0" d="M28.093,20.993c3.216,0.85,6.674,0.85,9.89-0.059c0-0.244,0-0.486,0.061-0.789
		c-0.12,0.06-0.242,0.06-0.364,0.121c0,0.242-0.061,0.484-0.061,0.727H28.093L28.093,20.993z"/>
	<path class="st0" d="M15.048,0.425c-0.243,0-0.486,0.06-0.728,0.121c-0.607,4.914,0.667,9.951,3.883,14.016
		c0.121-0.243,0.242-0.546,0.364-0.788C15.594,9.89,14.441,5.036,15.048,0.425L15.048,0.425z"/>
	<path class="st0" d="M19.416,12.439c-2.609-3.641-3.519-8.07-2.852-12.318c-0.242,0.061-0.485,0.061-0.788,0.122
		c-0.667,4.429,0.424,9.101,3.156,12.863l0,0C19.113,12.924,19.234,12.681,19.416,12.439L19.416,12.439z"/>
	<path class="st0" d="M38.044,18.992c0-0.061,0-0.182,0-0.304c-0.181,0.061-0.303,0.122-0.485,0.182c0,0.183,0.06,0.425,0.06,0.667
		c0.122-0.06,0.305-0.06,0.425-0.12C38.044,19.234,38.044,19.113,38.044,18.992L38.044,18.992z"/>
	<path class="st0" d="M22.814,16.929c0.486,0.364,1.032,0.728,1.517,1.031v-0.789h0.182c-0.545-0.303-1.031-0.606-1.517-0.97
		C22.936,16.443,22.875,16.686,22.814,16.929L22.814,16.929z"/>
	<path class="st0" d="M38.044,17.96c0-0.242-0.061-0.485-0.061-0.728c-0.242,0.061-0.424,0.122-0.667,0.182
		c0.061,0.243,0.122,0.485,0.122,0.728C37.619,18.082,37.863,18.021,38.044,17.96L38.044,17.96z"/>
	<path class="st0" d="M18.081,0c-0.242,0-0.546,0.061-0.788,0.061c-0.729,4.065,0.121,8.312,2.548,11.832
		c0.182-0.243,0.304-0.425,0.485-0.607C18.081,7.949,17.353,3.823,18.081,0L18.081,0z"/>
	<path class="st0" d="M27.911,17.171c-1.516-0.546-2.973-1.335-4.308-2.366c-0.121,0.182-0.243,0.425-0.364,0.668
		c0.85,0.667,1.759,1.213,2.731,1.698H27.911L27.911,17.171z"/>
	<path class="st0" d="M19.537,0c-0.181,0-0.363,0-0.485,0c-0.12,0-0.181,0-0.242,0c-0.789,3.641-0.061,7.523,2.062,10.801
		c0.183-0.183,0.365-0.364,0.548-0.486C19.416,7.221,18.81,3.458,19.537,0L19.537,0z"/>
	<path class="st0" d="M37.863,16.504c0-0.242-0.061-0.547-0.061-0.789c-0.304,0.121-0.546,0.182-0.85,0.304
		c0.121,0.243,0.182,0.485,0.243,0.728C37.438,16.625,37.68,16.565,37.863,16.504L37.863,16.504z"/>
	<path class="st0" d="M32.037,17.171c0-0.182,0-0.424,0-0.606c-2.67-0.183-5.278-1.153-7.524-2.852
		c-0.06,0.061-0.121,0.121-0.182,0.182c-0.121,0.121-0.242,0.243-0.363,0.303c2.062,1.638,4.368,2.61,6.795,2.973H32.037
		L32.037,17.171z"/>
	<path class="st0" d="M20.994,0.061c-0.242,0-0.485,0-0.728-0.061c-0.729,3.337-0.181,6.917,1.759,9.89
		c0.183-0.121,0.365-0.243,0.608-0.364C20.812,6.674,20.266,3.276,20.994,0.061L20.994,0.061z"/>
	<path class="st0" d="M37.619,15.048c0-0.243-0.06-0.486-0.121-0.729c-0.364,0.122-0.667,0.243-1.031,0.304
		c0.122,0.243,0.183,0.486,0.303,0.728C37.073,15.23,37.316,15.169,37.619,15.048L37.619,15.048z"/>
	<path class="st0" d="M31.553,15.048c-2.003-0.182-3.884-0.91-5.583-2.124c-0.304,0.121-0.546,0.243-0.789,0.364
		c2.002,1.517,4.308,2.367,6.674,2.548C31.795,15.594,31.673,15.29,31.553,15.048L31.553,15.048z"/>
	<path class="st0" d="M37.256,13.592c-0.061-0.183-0.122-0.425-0.183-0.668c-0.423,0.121-0.849,0.303-1.273,0.425
		c0.121,0.182,0.242,0.425,0.363,0.667C36.528,13.895,36.892,13.774,37.256,13.592L37.256,13.592z"/>
	<path class="st0" d="M29.732,13.227c-0.304-0.121-0.667-0.242-0.971-0.364c-0.607-0.182-1.275-0.182-1.881-0.121
		c1.274,0.789,2.73,1.274,4.126,1.517C30.642,13.834,30.218,13.47,29.732,13.227L29.732,13.227z"/>
	<path class="st0" d="M22.45,0.303c-0.242-0.06-0.485-0.121-0.729-0.121c-0.728,3.034-0.242,6.31,1.578,9.041
		c0.182-0.121,0.424-0.243,0.668-0.304C22.268,6.371,21.722,3.216,22.45,0.303L22.45,0.303z"/>
	<path class="st0" d="M36.831,12.257c-0.121-0.243-0.181-0.486-0.303-0.728c-0.486,0.242-1.032,0.424-1.578,0.485
		c0.182,0.243,0.304,0.485,0.485,0.667C35.921,12.56,36.345,12.439,36.831,12.257L36.831,12.257z"/>
	<path class="st0" d="M23.846,0.607c-0.243-0.061-0.486-0.122-0.728-0.182c-0.668,2.791-0.182,5.824,1.577,8.312
		c0.243-0.121,0.547-0.121,0.789-0.182C23.724,6.249,23.179,3.276,23.846,0.607L23.846,0.607z"/>
	<path class="st0" d="M27.304,8.373c-2.001-2.002-2.669-4.793-2.062-7.341c-0.244-0.062-0.486-0.183-0.729-0.243
		c-0.605,2.608,0,5.46,1.82,7.645C26.637,8.434,26.94,8.373,27.304,8.373L27.304,8.373z"/>
	<path class="st0" d="M34.464,11.407L34.464,11.407c0.607-0.061,1.214-0.242,1.76-0.485c-0.061-0.243-0.182-0.485-0.303-0.668
		c-0.667,0.243-1.396,0.425-2.124,0.485C34.04,10.982,34.282,11.165,34.464,11.407L34.464,11.407z"/>
	<path class="st0" d="M28.396,7.463c-1.637-1.577-2.184-3.822-1.759-5.886c-0.242-0.122-0.485-0.243-0.728-0.303
		c-0.546,2.306,0.121,4.915,1.942,6.735c0.182,0.121,0.303,0.304,0.485,0.425c0.729,0.061,1.456,0.243,2.184,0.425
		C29.732,8.555,29.004,8.07,28.396,7.463L28.396,7.463z"/>
	<path class="st0" d="M35.557,9.647c-0.122-0.243-0.242-0.485-0.364-0.667c-1.336,0.485-2.731,0.485-4.066,0.122
		c0.668,0.242,1.274,0.606,1.881,1.031C33.857,10.133,34.767,9.951,35.557,9.647L35.557,9.647z"/>
	<path class="st0" d="M34.828,8.373c-0.182-0.243-0.303-0.424-0.485-0.667c-1.699,0.485-3.58,0.06-4.915-1.274
		c-1.153-1.153-1.637-2.731-1.456-4.248c-0.242-0.121-0.486-0.243-0.729-0.303c-0.303,1.76,0.243,3.701,1.639,5.097
		C30.46,8.555,32.767,9.04,34.828,8.373L34.828,8.373z"/>
	<path class="st0" d="M33.857,7.099c-0.181-0.182-0.364-0.425-0.546-0.667C32.28,6.553,31.248,6.189,30.46,5.4
		c-0.668-0.667-1.032-1.517-1.093-2.366c-0.242-0.122-0.485-0.304-0.729-0.425c-0.061,1.153,0.365,2.427,1.274,3.337
		C31.006,7.038,32.462,7.402,33.857,7.099L33.857,7.099z"/>
	<path class="st0" d="M32.705,5.764c-0.789-0.789-1.639-1.517-2.549-2.184c0.122,0.485,0.364,0.97,0.789,1.334
		C31.431,5.4,32.037,5.703,32.705,5.764L32.705,5.764z"/>
	<path class="st0" d="M69.839,22.997c0.304,1.697,0.971,2.973,2.549,3.459c1.881,0.545,4.247,0.424,5.4-1.094
		c0.424-0.545,0.485-1.334,0.303-2.002c-0.303-1.031-1.213-1.273-3.033-1.637c-1.578-0.365-5.461-0.789-7.523-2.367
		c-1.64-1.274-2.489-3.701-1.64-6.371c0.973-2.852,3.885-4.126,6.069-4.43c4.064-0.606,7.341,0.91,8.736,2.367
		c1.093,1.153,1.82,2.973,1.76,4.733h-4.49c-0.06-0.546-0.121-1.093-0.364-1.578c-0.546-1.214-1.82-1.942-3.216-1.942
		c-1.578-0.121-3.216,0.304-3.883,1.639c-0.243,0.485-0.243,1.335,0.183,1.82c0.971,1.092,2.851,1.153,4.489,1.456
		c2.791,0.485,5.825,0.971,7.159,3.277c1.518,2.67,0.668,5.703-0.302,6.916c-0.668,0.852-1.457,1.639-2.488,2.246
		c-1.76,0.971-4.733,1.334-7.645,0.85c-2.671-0.424-4.491-1.76-5.522-3.398c-0.789-1.273-1.273-2.367-1.273-3.943H69.839
		L69.839,22.997z"/>
	<path class="st0" d="M49.451,17.171h7.646c0.121-1.759-1.214-3.701-2.973-4.246c-1.638-0.485-3.338-0.182-4.733,0.971
		c-1.274,1.153-1.699,3.58-1.699,5.097c0.06,2.851,0.607,4.854,2.245,6.067c1.092,0.789,3.58,1.82,5.764,0.244
		c0.971-0.73,1.396-1.701,1.578-2.428h5.399c-0.121,1.697-1.76,4.428-3.396,5.643c-2.913,2.123-6.736,2.549-9.771,1.396
		c-6.492-2.428-7.524-8.617-7.038-12.319c0.243-1.517,0.789-3.094,1.578-4.49c1.516-2.427,3.7-4.126,6.734-4.611
		c3.338-0.486,6.615,0.545,8.737,2.912c1.215,1.396,2.367,3.702,2.791,5.582c0.243,1.275,0.486,2.609,0.364,4.004H49.451V17.171
		L49.451,17.171z"/>
	<path class="st0" d="M104.365,24.757v-6.554c-0.062-1.699-0.062-3.398-0.426-4.976c-0.363-1.577-1.76-4.187-6.25-4.732
		c-0.849-0.061-1.758-0.061-2.668-0.061l0,0l0,0H95.02l0,0c-1.517,0.061-3.094,0.303-4.366,0.789
		c-2.67,1.092-4.006,3.701-4.006,6.432h4.854c-0.121-1.396,0.911-2.67,1.881-3.035c0.425-0.181,1.032-0.303,1.639-0.303
		c1.214-0.059,2.427,0.243,3.275,1.032c0.546,0.546,0.729,1.274,0.546,2.063c-0.303,1.274-1.699,1.699-3.822,2.002v0.001
		c-0.727,0.121-1.574,0.181-2.483,0.303c-2.548,0.303-6.189,1.577-7.039,5.279c-0.302,1.455-0.061,4.125,2.185,5.885
		c1.518,1.152,3.642,1.699,5.279,1.639c0.729,0,1.456-0.061,2.064-0.182v-0.002c1.695-0.363,3.029-1.152,4.302-2.184
		c0.061,0.305,0.365,1.457,0.606,1.762h5.098C104.243,28.337,104.365,26.03,104.365,24.757L104.365,24.757z M98.904,23.968
		c-0.547,1.457-2.064,2.305-3.884,2.488l0,0c-0.362,0.061-0.785,0.119-1.209,0.059c-1.214,0-2.245-0.605-2.67-1.516
		c-0.485-0.91-0.182-1.82,0.121-2.367c0.728-1.274,2.002-1.518,3.764-1.881l0,0c0.544-0.061,1.148-0.182,1.813-0.363
		c1.335-0.303,1.641-0.545,2.306-1.031C99.145,19.843,99.207,23.3,98.904,23.968L98.904,23.968z"/>
</g>
</svg>
